<?xml version="1.0" encoding="UTF-8" standalone="no"?>
<!-- Created with Inkscape (http://www.inkscape.org/) -->

<svg
   xmlns:dc="http://purl.org/dc/elements/1.1/"
   xmlns:cc="http://creativecommons.org/ns#"
   xmlns:rdf="http://www.w3.org/1999/02/22-rdf-syntax-ns#"
   xmlns:svg="http://www.w3.org/2000/svg"
   xmlns="http://www.w3.org/2000/svg"
   xmlns:sodipodi="http://sodipodi.sourceforge.net/DTD/sodipodi-0.dtd"
   xmlns:inkscape="http://www.inkscape.org/namespaces/inkscape"
   width="4.2333331mm"
   height="4.2333331mm"
   viewBox="0 0 4.2333331 4.2333331"
   version="1.1"
   id="svg10539"
   inkscape:version="0.92.4 5da689c313, 2019-01-14"
   sodipodi:docname="view-sidebar-symbolic-rtl.svg">
  <defs
     id="defs10533" />
  <sodipodi:namedview
     id="base"
     pagecolor="#e8e8e7"
     bordercolor="#666666"
     borderopacity="1.0"
     inkscape:pageopacity="0"
     inkscape:pageshadow="2"
     inkscape:zoom="44.8"
     inkscape:cx="3.0356919"
     inkscape:cy="6.8579579"
     inkscape:document-units="px"
     inkscape:current-layer="layer1"
     showgrid="true"
     fit-margin-top="0"
     fit-margin-left="0"
     fit-margin-right="0"
     fit-margin-bottom="0"
     inkscape:window-width="1920"
     inkscape:window-height="1016"
     inkscape:window-x="0"
     inkscape:window-y="27"
     inkscape:window-maximized="1">
    <inkscape:grid
       type="xygrid"
       id="grid11109" />
  </sodipodi:namedview>
  <metadata
     id="metadata10536">
    <rdf:RDF>
      <cc:Work
         rdf:about="">
        <dc:format>image/svg+xml</dc:format>
        <dc:type
           rdf:resource="http://purl.org/dc/dcmitype/StillImage" />
        <dc:title />
      </cc:Work>
    </rdf:RDF>
  </metadata>
  <g
     inkscape:label="Layer 1"
     inkscape:groupmode="layer"
     id="layer1"
     transform="translate(45.205952,-342.50834)">
    <path
       style="color:#bebebe;display:inline;overflow:visible;visibility:visible;opacity:1;fill:#2e3436;fill-opacity:1;stroke:none;stroke-width:0.26458332;marker:none"
       d="m -41.766369,343.03751 c 0.288581,0 0.529167,0.24058 0.529167,0.52916 v 2.11667 0.52917 h -3.704167 v -0.52917 -2.11667 c 0,-0.28858 0.240585,-0.52916 0.529167,-0.52916 z m 0,0.52916 h -0.79375 v 2.11667 h 0.79375 z m -1.058333,0 h -1.5875 v 2.11667 h 1.5875 z"
       id="rect10509"
       inkscape:connector-curvature="0" />
    <rect
       transform="rotate(-90)"
       style="color:#bebebe;display:inline;overflow:visible;visibility:visible;opacity:0.35;fill:#2e3436;fill-opacity:1;stroke:none;stroke-width:0.26458332;marker:none"
       id="rect10511"
       width="2.1166327"
       height="0.79374611"
       x="-345.68332"
       y="-42.560158" />
  </g>
</svg>
